-------------------------------------------------------------------------------
Test set: es.kazbeel.geckobugtracker.repository.RemembermeTokenDaoTest
-------------------------------------------------------------------------------
Tests run: 3, Failures: 0, Errors: 0, Skipped: 0, Time elapsed: 0.032 sec
