-------------------------------------------------------------------------------
Test set: es.kazbeel.geckobugtracker.web.controller.admin.PriorityControllerTest
-------------------------------------------------------------------------------
Tests run: 16, Failures: 0, Errors: 0, Skipped: 0, Time elapsed: 0.141 sec
