-------------------------------------------------------------------------------
Test set: es.kazbeel.geckobugtracker.model.IssueTypeTest
-------------------------------------------------------------------------------
Tests run: 4, Failures: 0, Errors: 0, Skipped: 0, Time elapsed: 0.016 sec
