-------------------------------------------------------------------------------
Test set: es.kazbeel.geckobugtracker.repository.TagDaoTest
-------------------------------------------------------------------------------
Tests run: 3, Failures: 0, Errors: 0, Skipped: 0, Time elapsed: 0.015 sec
