-------------------------------------------------------------------------------
Test set: es.kazbeel.geckobugtracker.repository.IssueDaoTest
-------------------------------------------------------------------------------
Tests run: 11, Failures: 0, Errors: 0, Skipped: 0, Time elapsed: 0.094 sec
